simulation/qsim/MEM_4x3.msim.vcd
$comment
	File created using the following command:
		vcd file MEM_4x3.msim.vcd -direction
$end
$date
	Thu Jul 03 22:00:52 2025
$end
$version
	ModelSim Version 10.1d
$end
$timescale
	1ps
$end
$scope module MEM_4x3_vlg_vec_tst $end
$var reg 2 ! A [1:0] $end
$var reg 1 " CS $end
$var reg 3 # I [2:0] $end
$var reg 1 $ OE $end
$var reg 1 % RD $end
$var wire 1 & O [2] $end
$var wire 1 ' O [1] $end
$var wire 1 ( O [0] $end
$var wire 1 ) sampler $end
$scope module i1 $end
$var wire 1 * gnd $end
$var wire 1 + vcc $end
$var wire 1 , unknown $end
$var tri1 1 - devclrn $end
$var tri1 1 . devpor $end
$var tri1 1 / devoe $end
$var wire 1 0 inst22~combout $end
$var wire 1 1 inst28~combout $end
$var wire 1 2 inst21~combout $end
$var wire 1 3 inst26~combout $end
$var wire 1 4 inst22~clkctrl_outclk $end
$var wire 1 5 inst28~clkctrl_outclk $end
$var wire 1 6 inst21~clkctrl_outclk $end
$var wire 1 7 inst26~clkctrl_outclk $end
$var wire 1 8 inst11~feeder_combout $end
$var wire 1 9 inst11~regout $end
$var wire 1 : inst6~regout $end
$var wire 1 ; inst3~feeder_combout $end
$var wire 1 < inst3~regout $end
$var wire 1 = inst4~regout $end
$var wire 1 > inst41~0_combout $end
$var wire 1 ? inst41~1_combout $end
$var wire 1 @ CS~combout $end
$var wire 1 A RD~combout $end
$var wire 1 B OE~combout $end
$var wire 1 C inst43~0_combout $end
$var wire 1 D inst~regout $end
$var wire 1 E inst7~regout $end
$var wire 1 F inst12~regout $end
$var wire 1 G inst2~feeder_combout $end
$var wire 1 H inst2~regout $end
$var wire 1 I inst39~0_combout $end
$var wire 1 J inst39~1_combout $end
$var wire 1 K inst8~feeder_combout $end
$var wire 1 L inst8~regout $end
$var wire 1 M inst9~regout $end
$var wire 1 N inst5~regout $end
$var wire 1 O inst10~regout $end
$var wire 1 P inst38~0_combout $end
$var wire 1 Q inst38~1_combout $end
$var wire 1 R A~combout [1] $end
$var wire 1 S A~combout [0] $end
$var wire 1 T I~combout [2] $end
$var wire 1 U I~combout [1] $end
$var wire 1 V I~combout [0] $end
$upscope $end
$upscope $end
$enddefinitions $end
#0
$dumpvars
b0 !
1"
b111 #
0$
0%
z(
z'
z&
x)
0*
1+
x,
1-
1.
1/
00
01
12
03
04
05
16
07
18
09
0:
1;
0<
0=
0>
0?
1@
0A
0B
0C
0D
0E
0F
1G
0H
0I
0J
1K
0L
0M
0N
0O
0P
0Q
0S
0R
1V
1U
1T
$end
#100000
b10 !
1R
0)
13
02
06
17
1O
1H
1<
1P
1I
1>
1Q
1J
1?
#200000
b11 !
b1 !
1S
0R
1)
0?
03
10
0Q
0J
14
07
1M
1E
1:
1Q
1J
1?
#300000
b11 !
1R
0)
0P
0I
0>
11
00
04
15
0Q
0J
0?
1N
1F
19
1P
1I
1?
1Q
1J
#400000
1$
1%
b110 #
b100 #
b0 #
b10 !
b0 !
1B
1A
0S
0R
0V
0U
0T
1)
1C
01
0P
0I
0?
0K
0G
0;
08
05
0Q
0J
1(
1'
0&
0(
0'
#500000
b10 !
1R
0)
1P
1I
1>
1Q
1J
1?
1(
1'
1&
#600000
b11 !
b1 !
1S
0R
1)
#700000
b11 !
1R
0)
0>
#800000
0$
0%
b10 !
b0 !
0B
0A
0S
0R
1)
0C
12
0P
0I
0?
16
0Q
0J
z(
z'
z&
#900000
b10 !
1R
0)
1P
1I
1>
13
02
06
17
1Q
1J
1?
0O
0H
0<
0P
0I
0>
0Q
0J
0?
#1000000
b11 !
b1 !
1S
0R
1)
1P
1I
1?
1>
03
10
14
07
1Q
1J
0M
0E
0:
0Q
0J
0?
#1100000
b11 !
1R
0)
1Q
1J
0>
11
00
04
15
1?
0N
0F
09
0P
0I
0?
0Q
0J
#1200000
1$
1%
b10 !
b0 !
1B
1A
0S
0R
1)
1C
01
05
0(
0'
0&
#1300000
b10 !
1R
0)
#1400000
b11 !
b1 !
1S
0R
1)
1P
1I
1>
#1500000
b11 !
1R
0)
1Q
0P
1J
0I
0>
0Q
0J
1(
1'
0(
0'
